<svg width="33" height="34" viewBox="0 0 33 34" fill="none" xmlns="http://www.w3.org/2000/svg">
<path d="M16.5 0.392578C7.38817 0.392578 0 7.78075 0 16.8926C0 26.0044 7.38817 33.3926 16.5 33.3926C25.6118 33.3926 33 26.0044 33 16.8926C33 7.78075 25.6118 0.392578 16.5 0.392578ZM24.4296 12.8302C24.4406 13.0033 24.4406 13.1838 24.4406 13.3605C24.4406 18.7672 20.323 24.9953 12.7985 24.9953C10.4782 24.9953 8.32734 24.3213 6.51529 23.1611C6.84676 23.1979 7.16351 23.2127 7.50234 23.2127C9.41752 23.2127 11.178 22.5645 12.5813 21.4669C10.7839 21.4301 9.27388 20.2515 8.75826 18.631C9.38806 18.723 9.95525 18.723 10.6035 18.5573C9.67801 18.3693 8.84619 17.8667 8.24932 17.1349C7.65246 16.403 7.32735 15.4872 7.32924 14.5428V14.4912C7.87065 14.7969 8.50781 14.9848 9.17444 15.0105C8.61404 14.6371 8.15446 14.1311 7.83644 13.5374C7.51842 12.9438 7.35179 12.2809 7.35134 11.6074C7.35134 10.845 7.55022 10.1489 7.90748 9.54492C8.93469 10.8094 10.2165 11.8437 11.6696 12.5804C13.1227 13.317 14.7145 13.7397 16.3416 13.8209C15.7634 11.0402 17.8406 8.7899 20.3377 8.7899C21.5163 8.7899 22.577 9.28343 23.3247 10.079C24.2491 9.90586 25.133 9.55965 25.9212 9.09559C25.6155 10.0421 24.9747 10.8414 24.1239 11.3459C24.9489 11.2575 25.7444 11.0292 26.481 10.7088C25.9249 11.5264 25.2288 12.252 24.4296 12.8302Z" fill="#A1A5A9"/>
</svg>
