<svg width="27" height="27" viewBox="0 0 27 27" fill="none" xmlns="http://www.w3.org/2000/svg">
<path d="M1.91797 5.62072C1.36568 5.62072 0.917969 6.06843 0.917969 6.62072C0.917969 7.173 1.36568 7.62072 1.91797 7.62072V5.62072ZM25.6293 7.62072C26.1816 7.62072 26.6293 7.173 26.6293 6.62072C26.6293 6.06843 26.1816 5.62072 25.6293 5.62072V7.62072ZM4.55256 6.62072V5.62072H3.55256V6.62072H4.55256ZM22.9947 6.62072H23.9947V5.62072H22.9947V6.62072ZM22.1277 19.5272L23.0885 19.8046L22.1277 19.5272ZM16.0446 24.8294L16.2112 25.8154L16.0446 24.8294ZM11.5026 24.8294L11.6693 23.8434L11.6692 23.8434L11.5026 24.8294ZM11.2948 24.7943L11.1282 25.7803H11.1282L11.2948 24.7943ZM5.41954 19.5272L4.45877 19.8045L5.41954 19.5272ZM16.2524 24.7943L16.0858 23.8082V23.8082L16.2524 24.7943ZM8.29703 4.58785L9.20476 5.00743L8.29703 4.58785ZM9.58203 2.86448L8.91466 2.11975V2.11975L9.58203 2.86448ZM11.5052 1.71295L11.8531 2.65045L11.5052 1.71295ZM16.0421 1.71296L16.3901 0.775457V0.775457L16.0421 1.71296ZM19.2502 4.58786L20.158 4.16829V4.16828L19.2502 4.58786ZM1.91797 7.62072H25.6293V5.62072H1.91797V7.62072ZM16.0858 23.8082L15.878 23.8434L16.2112 25.8154L16.4191 25.7803L16.0858 23.8082ZM11.6692 23.8434L11.4615 23.8082L11.1282 25.7803L11.336 25.8154L11.6692 23.8434ZM21.9947 6.62072V13.3959H23.9947V6.62072H21.9947ZM5.55256 13.3959V6.62072H3.55256V13.3959H5.55256ZM21.9947 13.3959C21.9947 15.3769 21.716 17.3479 21.1669 19.2498L23.0885 19.8046C23.6896 17.7222 23.9947 15.5645 23.9947 13.3959H21.9947ZM15.878 23.8434C14.4848 24.0788 13.0625 24.0788 11.6693 23.8434L11.336 25.8154C12.9498 26.0881 14.5974 26.0881 16.2112 25.8154L15.878 23.8434ZM11.4615 23.8082C9.04487 23.3999 7.06778 21.6313 6.38031 19.2498L4.45877 19.8045C5.35739 22.9175 7.94677 25.2427 11.1282 25.7803L11.4615 23.8082ZM6.38031 19.2498C5.83127 17.3479 5.55256 15.3769 5.55256 13.3959H3.55256C3.55256 15.5645 3.85765 17.7222 4.45877 19.8045L6.38031 19.2498ZM16.4191 25.7803C19.6005 25.2427 22.1898 22.9175 23.0885 19.8046L21.1669 19.2498C20.4795 21.6313 18.5024 23.3999 16.0858 23.8082L16.4191 25.7803ZM8.8458 6.62072C8.8458 6.07064 8.96653 5.52282 9.20476 5.00743L7.38931 4.16828C7.03173 4.94188 6.8458 5.77559 6.8458 6.62072H8.8458ZM9.20476 5.00743C9.44317 4.49162 9.79612 4.0154 10.2494 3.6092L8.91466 2.11975C8.26703 2.70011 7.7467 3.39509 7.38931 4.16828L9.20476 5.00743ZM10.2494 3.6092C10.7029 3.20282 11.247 2.87544 11.8531 2.65045L11.1572 0.775456C10.3249 1.08439 9.56207 1.53959 8.91466 2.11975L10.2494 3.6092ZM11.8531 2.65045C12.4593 2.42545 13.1122 2.30859 13.7736 2.30859V0.308594C12.8782 0.308594 11.9894 0.466543 11.1572 0.775456L11.8531 2.65045ZM13.7736 2.30859C14.4351 2.30859 15.088 2.42545 15.6941 2.65045L16.3901 0.775457C15.5579 0.466543 14.6691 0.308594 13.7736 0.308594V2.30859ZM15.6941 2.65045C16.3003 2.87544 16.8444 3.20282 17.2979 3.6092L18.6326 2.11975C17.9852 1.53959 17.2224 1.08439 16.3901 0.775457L15.6941 2.65045ZM17.2979 3.6092C17.7512 4.0154 18.1041 4.49163 18.3425 5.00743L20.158 4.16828C19.8006 3.39509 19.2802 2.70011 18.6326 2.11975L17.2979 3.6092ZM18.3425 5.00743C18.5807 5.52282 18.7015 6.07065 18.7015 6.62072H20.7015C20.7015 5.77559 20.5155 4.94189 20.158 4.16829L18.3425 5.00743ZM4.55256 7.62072H22.9947V5.62072H4.55256V7.62072Z" fill="#ffffff"/>
</svg>
