<svg width="67" height="67" viewBox="0 0 67 67" fill="none" xmlns="http://www.w3.org/2000/svg">
<path d="M61.7527 15.9671C58.4127 10.7854 53.7029 6.62781 48.1327 3.94424L45.7163 8.86773C55.4362 13.5507 61.4742 23.1075 61.4742 33.809C61.4742 49.0917 48.9249 61.525 33.5 61.525C18.0751 61.525 5.5258 49.0917 5.5258 33.8091C5.5258 24.7124 10.112 16.2096 17.5061 11.0757L27.2617 20.7879V0H6.38065L13.5555 7.1428C10.3209 9.5196 7.5267 12.4619 5.32098 15.8534C1.84009 21.2059 0 27.4147 0 33.8091C0 52.1107 15.028 67 33.5 67C51.972 67 67 52.1107 67 33.8091C67 27.4626 65.1853 21.293 61.7527 15.9671Z" fill="#286196"/>
</svg>
