<svg width="110" height="110" viewBox="0 0 110 110" fill="none" xmlns="http://www.w3.org/2000/svg">
<ellipse cx="54.5477" cy="55.3258" rx="54.5223" ry="54.3707" fill="#E3983F"/>
<path fill-rule="evenodd" clip-rule="evenodd" d="M41.2668 35.2199C44.8596 31.74 49.1874 30 54.25 30C59.3125 30 63.6198 31.7202 67.1718 35.1606C70.7241 38.6011 72.5 42.773 72.5 47.6766C72.5 50.1283 71.8671 52.936 70.6014 56.0997C69.3357 59.2632 67.8047 62.2292 66.0083 64.9973C64.212 67.7654 62.4361 70.3555 60.6805 72.7679C58.9248 75.1803 57.4345 77.0979 56.2098 78.5217L54.25 80.5385C53.7601 79.9848 53.1067 79.2534 52.2902 78.3437C51.4738 77.4343 50.0039 75.6152 47.8809 72.8864C45.7578 70.1579 43.9002 67.5085 42.3079 64.9381C40.7156 62.3676 39.2662 59.4611 37.9597 56.2182C36.6532 52.9756 36 50.1283 36 47.6766C36 42.773 37.7556 38.6208 41.2668 35.2199Z" stroke="white" stroke-width="5" stroke-linecap="round" stroke-linejoin="round"/>
<path d="M60 48C60 50.7615 57.7615 53 55 53C52.2385 53 50 50.7615 50 48C50 45.2386 52.2385 43 55 43C57.7615 43 60 45.2386 60 48Z" stroke="white" stroke-width="4" stroke-linecap="round" stroke-linejoin="round"/>
</svg>
