<svg width="110" height="110" viewBox="0 0 110 110" fill="none" xmlns="http://www.w3.org/2000/svg">
<ellipse cx="54.5487" cy="55.3258" rx="54.5223" ry="54.3707" fill="#F2CA3A"/>
<path d="M58 82H37C33.6863 82 31 79.034 31 75.375V35.625C31 31.9661 33.6863 29 37 29H73C76.3138 29 79 31.9661 79 35.625V58.8125M58 82L79 58.8125M58 82V62.125C58 60.2955 59.3431 58.8125 61 58.8125H79" stroke="white" stroke-width="5" stroke-linecap="round" stroke-linejoin="round"/>
</svg>
