<svg width="110" height="110" viewBox="0 0 110 110" fill="none" xmlns="http://www.w3.org/2000/svg">
<ellipse cx="54.5487" cy="55.3258" rx="54.5223" ry="54.3707" fill="#449430"/>
<path d="M69.225 36.6333C67.05 30.35 61.0083 26 54 26C46.2667 26 39.7417 31.5583 38.05 38.8083L25 33.25V74.8167L44.3333 83.0333L63.6667 75.7833L83 84V42.4333L69.225 36.6333ZM46.75 60.8C49.65 64.1833 52.3083 66.1167 52.55 66.3583L54.2417 67.8083L55.6917 66.3583C56.4167 65.6333 57.3833 64.6667 58.35 63.9417C59.3167 62.975 60.2833 62.0083 61.25 61.0417V71.4333L46.75 76.9917V60.8ZM54 30.8333C60.2833 30.8333 65.6 35.9083 65.6 42.4333C65.6 47.025 63.6667 50.65 61.25 53.7917C59.3167 56.2083 57.1417 58.3833 54.9667 60.3167C54.725 60.5583 54.2417 61.0417 54 61.2833C49.65 57.4167 42.4 49.2 42.4 42.4333C42.4 35.9083 47.7167 30.8333 54 30.8333ZM29.8333 40.5L37.8083 43.8833C38.2917 47.5083 39.9833 51.1333 41.9167 54.5167V76.75L29.8333 71.675V40.5ZM78.1667 76.75L66.0833 71.675V55.4833C68.5 51.8583 70.4333 47.75 70.4333 42.4333L78.1667 45.8167V76.75Z" fill="white" stroke="white" stroke-width="0.5"/>
<path d="M53.9993 47.7497C56.6687 47.7497 58.8327 45.5857 58.8327 42.9163C58.8327 40.247 56.6687 38.083 53.9993 38.083C51.33 38.083 49.166 40.247 49.166 42.9163C49.166 45.5857 51.33 47.7497 53.9993 47.7497Z" fill="white" stroke="white" stroke-width="0.5"/>
</svg>
