<svg width="106" height="105" viewBox="0 0 106 105" fill="none" xmlns="http://www.w3.org/2000/svg">
<circle cx="53.0227" cy="52.3488" r="52.3156" fill="#284096"/>
<path d="M90.035 48.1537L69.7139 27.7903C68.5474 26.6174 66.5074 26.6174 65.3409 27.7903L56.0208 37.126C54.8265 38.3318 54.8265 40.2948 56.0259 41.5082L58.5512 44.0096C56.9157 43.8791 54.6192 44.7276 54.4057 44.7138L48.6169 42.9166L50.0174 41.5132C50.6026 40.9268 50.926 40.1479 50.926 39.3209C50.926 38.49 50.6024 37.7111 50.0185 37.1285L40.7035 27.7889C39.532 26.62 37.5021 26.62 36.3305 27.7928L16.0132 48.15C15.4281 48.7364 15.1045 49.5165 15.1045 50.3474C15.1045 51.1744 15.4281 51.9547 16.012 52.5372L25.3245 61.8729C25.9071 62.4593 26.6856 62.7823 27.5111 62.7823C28.3365 62.7823 29.1125 62.4593 29.6989 61.8729L30.3384 61.232C31.9878 64.6936 37.5287 71.7317 41.3926 75.6061L46.4734 80.6976C48.0306 82.2555 49.5055 82.586 50.4712 82.586C51.701 82.586 52.8561 82.0781 53.8117 81.1206C54.7471 80.1821 55.0112 79.2689 55.0705 78.609C56.1904 78.8725 57.8714 78.7496 58.8913 77.7262C59.8266 76.7914 60.0907 75.8744 60.1501 75.2146C61.27 75.478 62.9509 75.359 63.9708 74.3356C64.9062 73.3971 65.1703 72.4839 65.2285 71.824C66.3559 72.0721 68.0318 71.9608 69.0492 70.9411C69.9137 70.0736 70.8553 68.5233 70.1716 66.3639C71.625 65.0049 74.0784 63.4205 76.5012 61.9767C77.0675 62.4795 77.7701 62.781 78.5323 62.781C79.3615 62.781 80.1388 62.458 80.7189 61.8716L90.0339 52.5396C91.2394 51.3264 91.2394 49.3633 90.035 48.1537ZM27.5123 58.6926L19.1869 50.3474L38.5169 30.9705L46.8423 39.3158L27.5123 58.6926ZM66.5049 68.1867C66.3697 68.1867 66.1106 68.1233 65.8806 68.0677C65.4914 67.9752 65.0515 67.8676 64.5611 67.8676C63.5727 67.8676 62.9281 68.3059 62.5604 68.6731C61.7008 69.5344 61.6086 70.4576 61.553 71.0112C61.5138 71.4013 61.5101 71.4228 61.4292 71.5825C61.294 71.5825 61.0349 71.5191 60.8049 71.4634C60.4157 71.3673 59.9758 71.2634 59.4828 71.2634C58.4906 71.2634 57.8449 71.7017 57.4796 72.0689C56.6201 72.9302 56.5278 73.8534 56.4723 74.4031C56.433 74.7932 56.4293 74.8147 56.346 74.9744C56.2107 74.9744 55.9503 74.911 55.7203 74.8554C55.3336 74.7629 54.895 74.659 54.4021 74.659C53.4099 74.659 52.7641 75.0973 52.4026 75.4608C51.5394 76.3221 51.4471 77.2453 51.3914 77.7989C51.3522 78.189 51.3485 78.2105 51.1285 78.4334C50.7784 78.7855 50.5458 78.7855 50.47 78.7855C50.1237 78.7855 49.6447 78.503 49.153 78.0104L44.0721 72.9189C39.7381 68.5733 34.8128 61.6466 32.9119 58.6512L45.6065 45.93L48.4074 46.7215C46.0654 48.5138 44.2061 51.081 42.7047 52.9454C42.2067 53.5648 41.8123 54.0624 41.5343 54.3412C40.3488 55.5291 39.9861 56.7716 40.4562 58.0408C40.8025 58.9831 41.5583 59.7405 42.5151 60.698C43.3669 61.5516 44.44 62.0038 45.6205 62.0038C48.0371 62.0038 50.3512 60.1674 52.5896 58.3891C53.0801 58.0003 54.5538 57.0009 55.4789 56.3792C59.1151 59.6963 62.6224 62.9462 65.0959 65.4237C67.1445 67.4712 66.5997 68.0171 66.5049 68.1867ZM68.1164 63.1256C67.9937 62.9913 67.9129 62.8711 67.779 62.7367C64.5359 59.4867 60.3043 56.0075 57.7019 53.5087C56.9032 52.7412 55.4623 52.9717 54.3412 53.3173C53.0318 53.5403 51.8058 54.1634 50.2373 55.4085C48.7522 56.5889 46.7199 58.2025 45.6215 58.2025C45.4737 58.2025 44.6142 57.5907 44.4511 57.4275C44.1364 57.1121 45.0603 56.0736 45.6569 55.3313C47.7373 52.7489 50.5039 49.8395 54.1275 48.4439C57.2089 47.2559 59.35 47.7675 62.1849 47.8105L73.7053 59.2246C71.6287 60.4874 69.6317 61.8273 68.1164 63.1256ZM78.5334 58.6839L59.1995 39.3146L67.5273 30.9731L86.86 50.3423L78.5334 58.6839Z" fill="white"/>
</svg>
