<svg width="110" height="110" viewBox="0 0 110 110" fill="none" xmlns="http://www.w3.org/2000/svg">
<ellipse cx="55.4689" cy="55.2761" rx="54.4855" ry="54.334" fill="#8D9628"/>
<path d="M54.9694 25.866C55.6853 25.866 56.3718 26.1515 56.8781 26.6598C57.3843 27.1682 57.6687 27.8576 57.6687 28.5764V32.1904C57.6687 32.9093 57.3843 33.5987 56.8781 34.107C56.3718 34.6153 55.6853 34.9009 54.9694 34.9009C54.2535 34.9009 53.5669 34.6153 53.0607 34.107C52.5545 33.5987 52.2701 32.9093 52.2701 32.1904V28.5764C52.2701 27.8576 52.5545 27.1682 53.0607 26.6598C53.5669 26.1515 54.2535 25.866 54.9694 25.866ZM73.9723 33.889C74.4778 34.3972 74.7617 35.0861 74.7617 35.8043C74.7617 36.5226 74.4778 37.2115 73.9723 37.7197L71.4278 40.2748C71.1807 40.5411 70.8827 40.7547 70.5516 40.9029C70.2205 41.051 69.863 41.1307 69.5006 41.1371C69.1382 41.1435 68.7782 41.0765 68.442 40.9402C68.1059 40.8039 67.8006 40.601 67.5443 40.3436C67.288 40.0862 67.0859 39.7796 66.9502 39.4421C66.8144 39.1046 66.7477 38.7431 66.7541 38.3792C66.7605 38.0153 66.8398 37.6564 66.9874 37.3239C67.1349 36.9914 67.3476 36.6922 67.6128 36.444L70.1573 33.889C70.6635 33.3814 71.3495 33.0963 72.0648 33.0963C72.7801 33.0963 73.4662 33.3814 73.9723 33.889ZM35.9664 37.7197C35.4896 37.2059 35.2301 36.5263 35.2424 35.8241C35.2547 35.1219 35.538 34.452 36.0326 33.9554C36.5271 33.4588 37.1943 33.1743 37.8936 33.1619C38.5929 33.1495 39.2697 33.4102 39.7814 33.889L42.3259 36.444C42.8027 36.9578 43.0623 37.6374 43.05 38.3396C43.0376 39.0418 42.7544 39.7118 42.2598 40.2084C41.7652 40.705 41.098 40.9895 40.3987 41.0019C39.6994 41.0142 39.0227 40.7536 38.511 40.2748L35.9664 37.7197ZM81.9622 52.9706C81.9622 53.6895 81.6778 54.3789 81.1716 54.8872C80.6654 55.3955 79.9788 55.6811 79.2629 55.6811H75.6639C74.948 55.6811 74.2614 55.3955 73.7552 54.8872C73.249 54.3789 72.9646 53.6895 72.9646 52.9706C72.9646 52.2518 73.249 51.5624 73.7552 51.0541C74.2614 50.5457 74.948 50.2602 75.6639 50.2602H79.2629C79.9788 50.2602 80.6654 50.5457 81.1716 51.0541C81.6778 51.5624 81.9622 52.2518 81.9622 52.9706ZM34.2749 55.6811C34.9908 55.6811 35.6774 55.3955 36.1836 54.8872C36.6898 54.3789 36.9742 53.6895 36.9742 52.9706C36.9742 52.2518 36.6898 51.5624 36.1836 51.0541C35.6774 50.5457 34.9908 50.2602 34.2749 50.2602H30.6758C29.96 50.2602 29.2734 50.5457 28.7672 51.0541C28.261 51.5624 27.9766 52.2518 27.9766 52.9706C27.9766 53.6895 28.261 54.3789 28.7672 54.8872C29.2734 55.3955 29.96 55.6811 30.6758 55.6811H34.2749ZM48.6711 80.9788C48.6711 80.26 48.9554 79.5705 49.4617 79.0622C49.9679 78.5539 50.6544 78.2683 51.3703 78.2683H58.5684C59.2843 78.2683 59.9709 78.5539 60.4771 79.0622C60.9833 79.5705 61.2677 80.26 61.2677 80.9788C61.2677 81.6977 60.9833 82.3871 60.4771 82.8954C59.9709 83.4037 59.2843 83.6893 58.5684 83.6893H51.3703C50.6544 83.6893 49.9679 83.4037 49.4617 82.8954C48.9554 82.3871 48.6711 81.6977 48.6711 80.9788Z" fill="white"/>
<path fill-rule="evenodd" clip-rule="evenodd" d="M54.9691 38.5148C50.6738 38.5148 46.5543 40.2282 43.517 43.278C40.4798 46.3279 38.7734 50.4644 38.7734 54.7776C38.7734 60.3069 42.1062 63.686 44.9566 66.5735L45.6764 67.3072C45.8564 67.4879 45.9679 67.7553 45.9679 68.0589C45.9715 71.7017 48.9119 74.6543 52.5398 74.6543H57.4525C61.0515 74.6543 63.9703 71.727 63.9703 68.1131C63.9703 67.8131 64.0891 67.5385 64.2871 67.3433L64.5282 67.1048C67.537 64.145 71.1648 60.578 71.1648 54.7776C71.1648 50.4644 69.4585 46.3279 66.4212 43.278C63.3839 40.2282 59.2645 38.5148 54.9691 38.5148ZM44.172 54.7776C44.172 51.9021 45.3096 49.1445 47.3344 47.1112C49.3593 45.078 52.1056 43.9357 54.9691 43.9357C57.8327 43.9357 60.579 45.078 62.6039 47.1112C64.6287 49.1445 65.7663 51.9021 65.7663 54.7776C65.7663 58.1313 63.8228 60.2057 60.5045 63.4728C59.2556 64.7015 58.5682 66.3748 58.5682 68.1095C58.5686 68.2569 58.5401 68.403 58.4843 68.5393C58.4284 68.6756 58.3463 68.7996 58.2427 68.904C58.139 69.0084 58.0159 69.0913 57.8803 69.1478C57.7447 69.2043 57.5993 69.2334 57.4525 69.2334H52.5362C52.2262 69.2315 51.9297 69.1065 51.7112 68.8858C51.4927 68.665 51.3701 68.3665 51.3701 68.0553C51.3701 66.3892 50.7403 64.7521 49.5454 63.5197L49.1315 63.0969C45.9355 59.8263 44.172 58.0085 44.172 54.7776Z" fill="white"/>
</svg>
