<svg width="29" height="24" viewBox="0 0 29 24" fill="none" xmlns="http://www.w3.org/2000/svg">
<line x1="2" y1="2" x2="26.2687" y2="2" stroke="white" stroke-width="4" stroke-linecap="round"/>
<line x1="2" y1="11.8651" x2="26.2687" y2="11.8651" stroke="white" stroke-width="4" stroke-linecap="round"/>
<line x1="2" y1="21.7295" x2="26.2687" y2="21.7295" stroke="white" stroke-width="4" stroke-linecap="round"/>
</svg>
