<svg width="105" height="105" viewBox="0 0 105 105" fill="none" xmlns="http://www.w3.org/2000/svg">
<circle cx="52.6612" cy="52.2976" r="52.2803" fill="#C66339"/>
<path d="M39.711 27.8362V66.7149M39.711 27.8362L26.2812 40.7958M39.711 27.8362L53.1408 40.7958" stroke="white" stroke-width="4" stroke-linecap="round" stroke-linejoin="round"/>
<path d="M66.5714 78.6777V39.799M66.5714 78.6777L80.0012 65.7182M66.5714 78.6777L53.1416 65.7182" stroke="white" stroke-width="4" stroke-linecap="round" stroke-linejoin="round"/>
</svg>
