<svg width="22" height="22" viewBox="0 0 22 22" fill="none" xmlns="http://www.w3.org/2000/svg">
<path d="M1 3.77687C1 2.24325 2.24325 1 3.77687 1H10.4414C10.5887 1 10.7299 1.05851 10.8341 1.16267L20.0565 10.3851C21.3145 11.6431 21.3145 13.6826 20.0565 14.9406L14.9406 20.0565C13.6826 21.3145 11.6431 21.3145 10.3851 20.0565L1.16267 10.8341C1.05851 10.7299 1 10.5887 1 10.4414V3.77687ZM10.2113 2.11075H3.77687C2.8567 2.11075 2.11075 2.8567 2.11075 3.77687V10.2113L11.1706 19.2711C11.9947 20.0953 13.331 20.0953 14.1551 19.2711L19.2711 14.1551C20.0953 13.331 20.0953 11.9947 19.2711 11.1706L10.2113 2.11075ZM6.55374 5.44299C5.94029 5.44299 5.44299 5.94029 5.44299 6.55374C5.44299 7.16719 5.94029 7.66449 6.55374 7.66449C7.16719 7.66449 7.66449 7.16719 7.66449 6.55374C7.66449 5.94029 7.16719 5.44299 6.55374 5.44299ZM6.55374 4.33224C7.78064 4.33224 8.77523 5.32684 8.77523 6.55374C8.77523 7.78064 7.78064 8.77523 6.55374 8.77523C5.32684 8.77523 4.33224 7.78064 4.33224 6.55374C4.33224 5.32684 5.32684 4.33224 6.55374 4.33224Z" fill="#BBBBBB" stroke="#BBBBBB"/>
</svg>
